,clave_interna,dep_general,1er nivel,2do nivel,3er nivel,Cargo,4to nivel
-,L00,TESORERIA,,,,TESORERO MUNICIPAL,
L00,00-116,,,SUBTESORERIA DE EGRESOS,,SUBTESORERO DE EGRESOS,
00-116,01-116,,,,NÓMINA, ,
00-116,01-117,,,,PROGRAMAS ESPECIALES,,
L00,00-118,,,SUBTESORERIA DE INGRESOS,,SUBTESORERO DE INGRESOS,
03-115,01-118,,,,CATASTRO,,
03-115,01-119,,,,PREDIAL,,
-,A00,PRESIDENCIA MUNICIPAL,,,,,
A00,00-100,,,SECRETARIA PARTICULAR,,SUBSECRETARIO MUNICIPAL,
A00,00-1001,,,SECRETARIA TECNICA,,SUBSECRETARIO TECNICO,
A00,00-1002,,,COORDINACIÓN DE COMUNICACIÓN SOCIAL,,,
A00,00-1003,,,UNIDAD DE ACCESO A LA INFORMACIÓN,,,
A00,05-111,,DELEGACION ADMINISTRATIVA ZONA ORIENTE,,,,
-,D00,SECRETARIA DEL AYUNTAMIENTO,,,,,
D00,00-141,,,ARCHIVO MUNICIPAL,,,
D00,01-142,,,PATRIMONIO MUNICIPAL,,,
D00,01-143,,,MODULOS CURP,,,
D00,01-144,,,COORDINACION DE COPACIS,,,
D00,01-145,,,OFICIALIA DEL REGISTRO CIVIL,,,
01-112,01-145-1,,,,ZONA CENTRO,,
01-112,01-145-2,,,,ZONA ORIENTE,,
D00,01-146,,,COORDINACION DE RECLUTAMIENTO,,,
D00,01-147,,,OFICIALIA COMUN DE PARTES,,,
D00,01-148,,,OFICINA DE ENLACE CON LA SECRETARIA DE RELACIONES EXTERIORES,,,
A00,00-102,,DEFENSORIA MUNICIPAL DE DERECHOS HUMANOS,,,,
-,M00,DIRECCION JURIDICA Y CONSULTIVA,,,,,
M00,00-155,,,SUBDIRECCION DEL JURIDICO CONSULTIVO,,,
-,B00,SINDICATURA,,,,,
-,J00,DIRECCION DE GOBERNACION,,,,,
J00,00-132,,,DIRECCION DE PERMISOS Y LICENCIAS,,,
J00,01-132,,,JEFATURA DE INSPECCION Y VERIFICACION,,,
J00,00-131,,,JEFE DE ATENCION EMPRESARIAL,,,
J00,00-111,,,COORDINADOR DE GOBIERNO ZONA ORIENTE,,,
J00,02-132,,,JEFATURA DE INSPECCION Y VERIFICACION ZONA ORIENTE,,,
J00,01-155,,,COORDINADOR JURIDICO DE LA DIRECCION DE GOBERNACION,,,
J00,03-132,,,JEFE DE PERMISOS Y LICENCIAS ZONA ORIENTE,,,
J00,00-110,,,COORDINADOR DE ASUNTOS POLITICOS Y SOCIALES,,,
-,K00,CONTRALORIA MUNICIPAL,,,,,
K00,00-138,,,SUBCONTRALORIA DE RESPONSABILIDADES,,,
K00,00-134,,,SUBCONTRALORIA DE AUDITORIAS,,,
K00,01-138,,,UNIDAD DE QUEJAS Y DENUNCIAS,,,
-,E00,DIRECCION DE ADMINISTRACION,,,,,
E00,00-162,,,COORDINACION DE SISTEMAS,,,
E00,00-163,,,TALLER MUNICIPAL,,,
E00,00-114,,,CONTROL VEHICULAR,,,
E00,00-120,,,LOGISTICA,,,
E00,00-164,,,MANTENIMIENTO,,,
E00,01-164,,,INTENDENCIA,,,
E00,01-111,,,COORDINACION ADM. DE ZONA ORIENTE,,,
E00,00-121,,,ADQUISICIONES,,,
E00,01-121,,,CONTROL DE COMBUSTIBLE,,,
A00,00-130,,DIRECCIÓN DE ADMINISTRACIÓN DE PERSONAL,,,,
00-120,00-131,,,JEFATURA DE ADMINISTRACIÓN DE PERSONAL ZONA ORIENTE,,,
F00,F00-1,,DIRECCION DE DESARROLLO URBANO Y TENENCIA DE LA TIERRA,,,,
F00-1,00-123,,,,SUBDIRECCION DE DESARROLLO URBANO,,
F00-1,01-123,,,,DEPARTAMENTO DE USO DE SUELO,,
F00-1,02-155,,,,COORDINACION JURIDICA DE DESARROLLO URBANO,,
F00-1,02-123,,,,"DEPARTAMENTO DE ALINEACION, NUMERO OFICIAL",,
F00-1,04-132,,,,COORDINACIÓN DE DESARROLLO URBANO ZONA ORIENTE,,
F00-1,03-123,,,,SUBDIRECCION DE LA TENENCIA DE LA TIERRA,,
-,H00,DIRECCION DE SERVICIOS PUBLICOS,,,,,
H00,00-125,,,COORDINACION ADMINISTRATIVA,,,
H00,00-125-1,,,SUBDIRECCIÓN DE SANEAMIENTO,,,
H00,00-125-2,,,DEPARTAMENTO DE IMAGEN URBANA,,,
H00,00-125-3,,,DEPARTAMENTO DE BACHEO,,,
H00,00-125-4,,,DEPARTAMENTO DE RECOLECCION,,,
H00,00-125-5,,,DEPARTAMENTO DE PANTEONES,,,
H00,00-125-6,,,DEPARTAMENTO DE CONTROL CANINO,,,
H00,00-125-7,,,DEPARTAMENTO DE PINTURA,,,
H00,00-125-8,,,DEPARTAMENTO DE LIMPIA,,,
H00,00-125-9,,,DEPARTAMENTO DE ALUMBRADO PUBLICO,,,
H00,00-125-10,,,"DEPARTAMENTO DE PARQUES, Y PANTEONES",,,
H00,00-125-11,,,"DEPARTAMENTO DE MERCADOS, TIANGUIS Y CENTRAL DE ABASTOS",,,
H00,00-125-12,,,COORDINACION DE SERVICIOS PUBLICOS ZONA ORIENTE,,,
-,Q00,DIRECCION DE TRANSITO MUNICIPAL,,,,,
Q00,00-154,,,COORDINACION DE TRANSPORTE,,,
-,Q00,DIRECCION  SEGURIDAD PUBLICA,,,,,
A00,00-105,,DIRECCION DE PROTECCION CIVIL Y BOMBEROS,,,,
-,N00,DIRECCION DE DESARROLLO ECONOMICO,,,,,
N00,00-140,,,DEPARTAMENTO DE SERVICIO MUNICIPAL DE EMPLEO,,,
O00,O00-01,,DIRECCION DE EDUCACION,,,,
F00,F00-2,,DIRECCION DE OBRAS PUBLICAS,,,,
F00-2,00-124,,,COORDINACION DE CONSTRUCCION,,,
00-124,00-124-1,,,,JEFATURA DE SUPERVICION DE OBRA,,
00-124,00-124-2,,,,JEFATURA DE CONTROL DE OBRA,,
00-124,00-124-3,,,,JEFATURA ADMINISTRATIVA,,
00-124,00-124-4,,,,JEFATURA DE MAQUINARIA Y TRANSPORTE,,
00-124,00-124-5,,,,JEFATURA DE ELECTRIFICACION Y GESTION SOCIAL,,
F00-2,00-126,,,COORDINACION DE PLANEACION Y PROYECTOS,,,
06-124,00-126-1,,,,JEFATURA DE PRECIOS UNITARIOS,,
06-124,00-126-2,,,,JEFATURA DE LICITACIONES Y CONTRATOS,,
F00-2,00-128,,,COORDINACION DE OBRAS ZONA ORIENTE,,,
G00,00-160,,DIRECCION DE ECOLOGIA,,,,
-,A01,DIRECCION DE DESARROLLO SOCIAL,,,,,
O00,O00-02,,DIRECCION DE CULTURA,,,,
-,C00,REGIDURIAS,,,,,
-,C01,,,REGIDURIA 1,,,
-,C02,,,REGIDURIA 2,,,
-,C03,,,REGIDURIA 3,,,
-,C04,,,REGIDURIA 4,,,
-,C05,,,REGIDURIA 5,,,
-,C06,,,REGIDURIA 6,,,
-,C07,,,REGIDURIA 7,,,
-,C08,,,REGIDURIA 8,,,
-,C09,,,REGIDURIA 9,,,
-,C10,,,REGIDURIA 10,,,
-,C11,,,REGIDURIA 11,,,
-,C12,,,REGIDURIA 12,,,
-,C13,,,REGIDURIA 13,,,
E00,S00,,INSTITUTO DE LA MUJER,INSTITUTO DE LA MUJER,,,
