CLAVE_MUC,CLAVE INTERNA,1 NIVEL,2 NIVEL,3 NIVEL,4 NIVEL,5 Nivel
-,A00,PRESIDENCIA,,,,
A00,A00-101,,SECRETARÍA PARTICULAR,,,
-,B00,,SÍNDICO MUNICIPAL,,,
-,C01,,PRIMERA REGIDURÍA,,,
-,C02,,SEGUNDA REGIDURÍA,,,
-,C03,,TERCERA REGIDURÍA,,,
-,C04,,CUARTA REGIDURÍA,,,
-,C05,,QUINTA REGIDURÍA,,,
-,C06,,SEXTA REGIDURÍA,,,
-,C07,,SEPTÍMA REGIDURÍA,,,
-,C08,,OCTAVA REGIDURÍA,,,
-,C09,,NOVENA REGIDURÍA,,,
-,C10,,DÉCIMA REGIDURÍA,,,
-,C11,,DÉCIMA PRIMERA REGIDURÍA,,,
-,C12,,DÉCIMA SEGUNDA REGIDURÍA,,,
-,C13,,DÉCIMA TERCERA REGIDURÍA,,,
A00,A00-001,,COORDINACIÓN MUNICIPAL DE OFICIALIAS MEDIADORAS-CONCILIADORAS Y CALIFICADORAS,,,
A00,A00-001-001,,,OFICIALIA MEDIADORA CONCILIADORA Y CALIFICADORA PRIMER TURNO,,
A00,A00-001-002,,,OFICIALIA MEDIADORA CONCILIADORA Y CALIFICADORA SEGUNDO TURNO,,
A00,A00-001-003,,,OFICIALIA MEDIADORA CONCILIADORA Y CALIFICADORA TERCER TURNO,,
A02,A00-002,,DEFENSORÍA MUNICPAL DE LOS DERECHOS HUMANOS,,,
-,D00,,SECRETARÍA DEL AYUNTAMIENTO,,,
D00,D00-001,,,SUBDIRECCIÓN TÉCNICA,,
D00,D00-001-001,,,,DEPARTAMENTO DE RECLUTAMIENTO DEL S.M.N.,
D00,D00-001-002,,,,DEPARTAMENTO DE SISTEMA DE INFORMACIÓN Y BIENES PATRIMONIALES,
D00,D00-001-003,,,,ARCHIVO MUNICIPAL,
D00,D00-002,,,SUBDIRECCIÓN DE NORMATIVIDAD ,,
D00,D00-002-001,,,,DEPARTAMENTO DE NORMATIVIDAD Y REGLAMENTACIÓN,
D00,D00-002-002,,,,DEPARTAMENTO TÉCNICO DE CABILDO,
D00,D00-003,,,SUBDIRECCIÓN DE PROTECCIÓN CIVIL,,
A00,A00-003,,REGISTRO CIVIL 1,,,
A00,A00-004,,REGISTRO CIVIL 4,,,
A00,A00-005,,REGISTRO CIVIL 5,,,
-,K00,,CONTRALORÍA MUNICIPAL,,,
K00,K00-001,,,SUBCONTRALORÍA,,
K00,K00-002,,,JEFE DE LA UNIDAD DE TRANSPARENCIA Y ACCESO A LA INFORMACIÓN,,
K00,K00-003,,,JEFE DE DEPARTAMENTO DE QUEJAS Y PROCEDIMIENTOS,,
K00,K00-004,,,JEFA DEL DEPARTAMENTO DE AUDITORÍA CONTABLE Y ADMINISTRATIVA,,
K00,K00-005,,,JEFE DEL DEPARTAMENTO DE AUDITORÍA DE OBRA,,
-,L00,,TESORERÍA MUNICIPAL,,,
L00,L00-001,,,SUBDIRECCIÓN DE EGRESOS,,
L00,L00-001-001,,,,DEPARTAMENTO DE CONTABILIDAD,
L00,L00-002,,,SUBDIRECCIÓN DE INGRESOS,,
L00,L00-002-001,,,,DEPARTAMENTO DE CATASTRO,
L00,L00-003,,,ÁREA DE SISTEMAS ,,
L00,L00-004,,,ARCHIVO / INVENTARIO,,
A01,A00-006,,COORDINACIÓN DE COMUNICACIÓN SOCIAL,,,
A01,A00-006-001,,,DEPARTAMENTO DE RELACIONES PÚBLICAS,,
M00,A00-007,,COORDINACIÓN JURÍDICA Y CONSULTIVA,,,
M00,A00-007-001,,,DEPARTAMENTO DE ASUNTOS JUDICIALES,,
M00,A00-007-001,,,DEPARTAMENTO DE ASUNTOS CONSTITUCIONALES,,
E02,A00-008,,COORDINACIÓN DE INFORMATICA,,,
E00,A00-009,,DIRECCIÓN DE ADMINISTRACIÓN,,,
E00,A00-009-001,,,SUBDIRECCIÓN DE RECURSOS HUMANOS,,
E00,A00-009-001-001,,,,DEPARTAMENTO DE NOMINA,
E00,A00-009-002,,,"SUBDIRECCIÓN DE RECURSOS MATERIALES, ADQUICISIONES Y CONTRATACIÓN DE SERVICIOS",,
E00,A00-009-002-001,,,,DEPARTAMENTO DE CONTROL VEHICULAR,
E00,A00-009-003,,,SUBDIRECCIÓN DE SERVICIOS GENERALES,,
F01,A00-010,,DIRECCIÓN DE DESARROLLO URBANO,,,
F01,A00-010-001,,,SUBDIRECCIÓN DE PLANEACCIÓN URBANA,,
F01,A00-010-001-001,,,,DEPARTAMENTO DE LICENCIAS DE USO DE SUELO,
F01,A00-010-001-002,,,,DEPARTAMENTO DE LICENCIAS DE CONSTRUCCIÓN,
F01,A00-010-001-003,,,,DEPARTAMENTO DE INSPECCIÓN,
F01,A00-010-001-004,,,,DEPARTAMENTO DE NORMATIVIDAD VIAL,
F01,A00-010-002,,,UNIDAD DE ANÁLISIS ESPECIALIZADO,,
F00,A00-011,,DIRECCIÓN DE OBRAS PÚBLICAS,,,
F00,A00-011-001,,,SUBDIRECCIÓN DE OBRAS PÚBLICAS,,
F00,A00-011-001-001,,,,DEPARTAMENTO DE ESTUDIOS Y PROYECTOS,
F00,A00-011-001-002,,,,DEPARTAMENTO DE CONSTRUCCIÓN Y SUPERVISIÓN DE OBRA,
F00,A00-011-002,,,SUBDIR DE NORMATIVIDAD ,,
F00,A00-011-002-001,,,,"DEPARTAMENTO DE LICITACIONES, ADMINISTRACIÓN DE CONTRATOS",
J00,A00-012,,DIRECCIÓN DE GOBERNACIÓN Y CONCERTACIÓN,,,
J00,A00-012-001,,,"SUBDIRECCIÓN DE TIANGUIS, MERCADOS Y CENTRALES DE ABASTO",,
I01,A00-013,,DIRECCIÓN DE DESARROLLO SOCIAL Y PARTICIPACIÓN CIUDADANA,,,
I01,A00-013-001,,,SUBDIRECCIÓN ADMINISTRATIVA,,
I01,A00-013-002,,,SUBDIRECCIÓN OPERATIVA,,
O00,A00-014,,DIRECCIÓN DE EDUCACIÓN Y CULTURA,,,
O00,A00-014-001,,,SUBDIRECCIÓN DE CULTURA,,
O00,A00-014-002,,,SUBDIRECCIÓN DE MEDIO AMBIENTE,,
E02,A00-015,,DIRECCIÓN DE INNOVACIÓN GUBERNAMENTAL,,,
E02,A00-015-001,,,SUBDIRECCIÓN DE PLANEACIÓN,,
E02,A00-015-002,,,SUBDIRECCIÓN DE ORGANIZACIÓN,,
E02,A00-015-003,,,DEPARTAMENTO DE INNOVACIÓN,,
Q00,A00-015,,DIRECCIÓN DE SEGURIDAD PÚBLICA Y TRANSITO MUNICIPAL,,,
H00,A00-016,,DIRECCIÓN DE SERVICIOS PÚBLICOS,,,
H00,A00-016-001,,,SUBDIRECCIÓN DE SERVICIOS PÚBLICOS,,
H00,A00-016-001-001,,,,DEPARTAMENTO DE ALUMBRADO PÚBLICO,
H00,A00-016-001-002,,,,DEPARTAMENTO DE LIMPIA,
H00,A00-016-001-003,,,,DEPARTAMENTO DE PANTEONES,
H00,A00-016-001-004,,,,DEPARTAMENTO DE PARQUES Y JARDÍNES,
N00,A00-017,,DIRECCIÓN DE DESARROLLO METROPOLITANO Y ECONÓMICO,,,
N00,A00-017-001,,,CENTRO MUNICIPAL DE ATENCIÓN EMPRESARIAL,,
N00,A00-017-002,,,"DEPARTAMENTO DE ASUNTOS INTERNACIONALES, TURISMO Y ARTESANIAS",,
N00,A00-017-003,,,DEPARTAMENTO AGROPECUARIO Y FORESTAL,,
N00,A00-017-004,,,DEPARTAMENTO DE DESARROLLO METROPOLITANO,,
