no_exp,nom_exp,no_legajos,fecha_ini,fecha_fin,no_caja,ubicacion,conservacion,responsable,clave_area
12356,NAME,2,2018-08-01,2018-08-09,1245,OFI,2,JIGA950202MMCDRN02,A00-03
123456789,name2,3,2018-08-01,2018-08-09,12578,ificina,14,JIGA950202MMCDRN02,A00-03
123456789,name3,3,2018-08-01,2018-08-09,12578,ificinajkuuj,14,JIGA950202MMCDRN02,A00-03
