*Nombre Completo del Servidor Saliente,*Domicilio Particular del Servidor Saliente,Cargo o Responsabilidad del Servidor Saliente,*Nombre Completo del Servidor Entrante,Domicilio Particular del Servidor Entrante,Cargo o Responsabilidad del Servidor Entrante
NOMBRE COMPLETO SAL NUM1,DOMICILIO PARTICULAR SAL NUM1,CARGO DEL SERVIDOR PUBLICO SAL NUM1,NOMBRE COMPLETO ENT NUM1,DOMICILIO PARTICULAR ENT NUM1,CARGO DEL SERVIDOR PUBLICO ENT NUM1
NOMBRE COMPLETO NUM2,DOMICILIO PARTICULAR NUM2,CARGO DEL SERVIDOR PUBLICO NUM2,,,CARGO DEL SERVIDOR PUBLICO ENT NUM2
NOMBRE COMPLETO NUM3,DOMICILIO PARTICULAR NUM3,CARGO DEL SERVIDOR PUBLICO NUM3,,,CARGO DEL SERVIDOR PUBLICO ENT NUM3
NOMBRE COMPLETO NUM4,DOMICILIO PARTICULAR NUM4,CARGO DEL SERVIDOR PUBLICO NUM4,,,CARGO DEL SERVIDOR PUBLICO ENT NUM4
