*acta_no,*fecha_acta,*acuerdo,*responsable,*vencimiento,observaciones,clave_area
345TSR2,2018-05-04,acurdo,A00-03,2018-06-05,sin,A00-03
123GBN,2018-05-04,acurdo,A00-03,2018-06-05,sin OBSERVACIONES,A00-03
