*CONCEPTO,*DESCRIP,*NO. UNIDADES,ESTADO,OBSERVACIONES,CLAVE_AREA
2015-020,CESTO PAPELERO,1,B,A RESGUARDO DE LA MAESTRA VENTURA SALINSA SANTANA,A00
2048-041CO,SACAPUNTAS ELECTRICO,1,B,A RESGUARDO DE LA MAESTRA VENTURA SALINSA SANTANA,A00
CARGADOR DE BATERIAS ELECTRICO,CARGADOR DE BATERIAS AAA AA,1,R,A RESGUARDO DE LA MAESTRA VENTURA SALINSA SANTANA,A00
ROTULADOR,ROTULADOR ELECTRICO,1,B,A RESGUARDO DE LA MAESTRA VENTURA SALINSA SANTANA,A00
2049-107NA,SILLA PLEGABLE ACOJINADA VINIL C/NEGRO,1,M,BAJAS POR RESOLUCION,A00
2049-118NA,SILLA PLEGABLE ACOJINADA VINIL C/NEGRO,1,M,BAJAS POR RESOLUCION,A00
2049-122NA,SILLA PLEGABLE ACOJINADA VINIL C/NEGRO,1,M,BAJAS POR RESOLUCION,A00
2049-125NA,SILLA PLEGABLE ACOJINADA VINIL C/NEGRO,1,M,BAJAS POR RESOLUCION,A00
0001-013CO,MEMORIA USB 8 GB,1,M,ACTIVOS EN PROCESO DE BAJA,A00
2002-010NA,ARCHIVERO DE MADERA 2 GAVETAS,1,M,ACTIVOS EN PROCESO DE BAJA,A00
2002-128,ARCHIVERO 2 GAVETAS METALICO,1,M,ACTIVOS EN PROCESO DE BAJA,A00
2003-001NA,MUEBLE PARA COMPUTADORA,1,M,ACTIVOS EN PROCESO DE BAJA,A00
2011-014NA,CALCULADORA,1,M,ACTIVOS EN PROCESO DE BAJA,A00
2011-016NA,CALCULADORA (2011-016NA),1,M,ACTIVOS EN PROCESO DE BAJA,A00
2015-005,CESTO PAPELERO,1,M,ACTIVOS EN PROCESO DE BAJA,A00
2015-046,CESTO PAPELERO,1,M,ACTIVOS EN PROCESO DE BAJA,A00
2015-063,CESTO PAPELERO,1,M,ACTIVOS EN PROCESO DE BAJA,A00
2015-103,CESTO PAPELERO,1,M,ACTIVOS EN PROCESO DE BAJA,A00
2025-164,ESCRITORIO 1.20*.60*.74,1,M,ACTIVOS EN PROCESO DE BAJA,A00
2028-050,EXTINGUIDOR PARA VEHICULO 2 KG,1,M,ACTIVOS EN PROCESO DE BAJA,A00
2037-087,MESA PARA MAQUINA DE ESCRIBIR,1,M,ACTIVOS EN PROCESO DE BAJA,A00
2049-004NA,SILLA SECRETARIAL SIN BRAZOS,1,M,ACTIVOS EN PROCESO DE BAJA,A00
2049-009NA,SILLA SECRETARIAL RESPALDO ALTO Y BRAZOS,1,M,ACTIVOS EN PROCESO DE BAJA,A00
2049-020NA,SILLA SECRETARIAL BASE 5 PUNTAS,1,M,ACTIVOS EN PROCESO DE BAJA,A00
2049-023NA,SILLA SECRETARIAL,1,M,ACTIVOS EN PROCESO DE BAJA,A00
2049-026NA,SILLA SECRETARIAL CON BRAZOS,1,M,ACTIVOS EN PROCESO DE BAJA,A00
2049-030NA,SILLA VISITA C/BRAZOS,1,M,ACTIVOS EN PROCESO DE BAJA,A00
2049-038NA,SILLA VISITA C/BRAZOS,1,M,ACTIVOS EN PROCESO DE BAJA,A00
2049-050,SILLA PLEGABLE,1,M,ACTIVOS EN PROCESO DE BAJA,A00
2049-053,SILLA PLEGABLE,1,M,ACTIVOS EN PROCESO DE BAJA,A00
2049-055,SILLA PLEGABLE,1,M,ACTIVOS EN PROCESO DE BAJA,A00
2049-061,SILLA PLEGABLE,1,M,ACTIVOS EN PROCESO DE BAJA,A00
2049-062,SILLA PLEGABLE,1,M,ACTIVOS EN PROCESO DE BAJA,A00
2049-063,SILLA PLEGABLE,1,M,ACTIVOS EN PROCESO DE BAJA,A00
2049-072,SILLA PLEGABLE,1,M,ACTIVOS EN PROCESO DE BAJA,A00
2049-074,SILLA PLEGABLE,1,M,ACTIVOS EN PROCESO DE BAJA,A00
2049-076,SILLA PLEGABLE,1,M,ACTIVOS EN PROCESO DE BAJA,A00
2049-078,SILLA PLEGABLE,1,M,ACTIVOS EN PROCESO DE BAJA,A00
2049-080,SILLA PLEGABLE,1,M,ACTIVOS EN PROCESO DE BAJA,A00
2049-084,SILLA PLEGABLE,1,M,ACTIVOS EN PROCESO DE BAJA,A00
2049-086,SILLA PLEGABLE,1,M,ACTIVOS EN PROCESO DE BAJA,A00
2049-088,SILLA PLEGABLE,1,M,ACTIVOS EN PROCESO DE BAJA,A00
2049-094,SILLA PLEGABLE,1,M,ACTIVOS EN PROCESO DE BAJA,A00
2049-098,SILLA PLEGABLE,1,M,ACTIVOS EN PROCESO DE BAJA,A00
2049-099,SILLA PLEGABLE,1,M,ACTIVOS EN PROCESO DE BAJA,A00
2049-102NA,SILLA PLEGABLE ACOJINADA VINIL C/NEGRO,1,M,ACTIVOS EN PROCESO DE BAJA,A00
2049-114NA,SILLA PLEGABLE ACOJINADA VINIL C/NEGRO,1,M,ACTIVOS EN PROCESO DE BAJA,A00
2049-116,SILLA PLEGABLE,1,M,ACTIVOS EN PROCESO DE BAJA,A00
2049-117,SILLA PLEGABLE,1,M,ACTIVOS EN PROCESO DE BAJA,A00
2049-117NA,SILLA PLEGABLE ACOJINADA VINIL C/NEGRO,1,M,ACTIVOS EN PROCESO DE BAJA,A00
2049-118,SILLA PLEGABLE,1,M,ACTIVOS EN PROCESO DE BAJA,A00
2049-119,SILLA PLEGABLE,1,M,ACTIVOS EN PROCESO DE BAJA,A00
2049-120NA,SILLA PLEGABLE ACOJINADA VINIL C/NEGRO,1,M,ACTIVOS EN PROCESO DE BAJA,A00
2049-121,SILLA PLEGABLE,1,M,ACTIVOS EN PROCESO DE BAJA,A00
2049-122,SILLA PLEGABLE,1,M,ACTIVOS EN PROCESO DE BAJA,A00
2049-123NA,SILLA PLEGABLE ACOJINADA VINIL C/NEGRO,1,M,ACTIVOS EN PROCESO DE BAJA,A00
2049-124,SILLA PLEGABLE,1,M,ACTIVOS EN PROCESO DE BAJA,A00
2049-126,SILLA PLEGABLE,1,M,ACTIVOS EN PROCESO DE BAJA,A00
2049-127,SILLA PLEGABLE,1,M,ACTIVOS EN PROCESO DE BAJA,A00
2049-128,SILLA PLEGABLE,1,M,ACTIVOS EN PROCESO DE BAJA,A00
2049-129NA,SILLA PLEGABLE ACOJINADA VINIL C/NEGRO,1,M,ACTIVOS EN PROCESO DE BAJA,A00
2049-132,SILLA PLEGABLE,1,M,ACTIVOS EN PROCESO DE BAJA,A00
2049-135,SILLA PLEGABLE,1,M,ACTIVOS EN PROCESO DE BAJA,A00
2049-137NA,SILLA PLEGABLE ACOJINADA VINIL C/NEGRO,1,M,ACTIVOS EN PROCESO DE BAJA,A00
2049-140,SILLA PLEGABLE,1,M,ACTIVOS EN PROCESO DE BAJA,A00
2049-142,SILLA PLEGABLE,1,M,ACTIVOS EN PROCESO DE BAJA,A00
2049-143,SILLA PLEGABLE,1,M,ACTIVOS EN PROCESO DE BAJA,A00
2049-147,SILLA PLEGABLE,1,M,ACTIVOS EN PROCESO DE BAJA,A00
2049-153,SILLA PLEGABLE,1,M,ACTIVOS EN PROCESO DE BAJA,A00
2049-155,SILLA PLEGABLE,1,M,ACTIVOS EN PROCESO DE BAJA,A00
2049-157,SILLA PLEGABLE,1,M,ACTIVOS EN PROCESO DE BAJA,A00
2049-158,SILLA PLEGABLE,1,M,ACTIVOS EN PROCESO DE BAJA,A00
2049-159,SILLA PLEGABLE,1,M,ACTIVOS EN PROCESO DE BAJA,A00
2049-163,SILLA PLEGABLE,1,M,ACTIVOS EN PROCESO DE BAJA,A00
2049-181,SILLA PLEGABLE COLOR NEGRO,1,M,ACTIVOS EN PROCESO DE BAJA,A00
2049-182,SILLA PLEGABLE COLOR NEGRO,1,M,ACTIVOS EN PROCESO DE BAJA,A00
2049-182NA,SILLA TIPO CAJERO,1,M,ACTIVOS EN PROCESO DE BAJA,A00
2049-184,SILLA PLEGABLE COLOR NEGRA,1,M,ACTIVOS EN PROCESO DE BAJA,A00
2049-186,SILLA PLEGABLE COLOR NEGRO,1,M,ACTIVOS EN PROCESO DE BAJA,A00
2049-187NA,SILLA TIPO CAJERO,1,M,ACTIVOS EN PROCESO DE BAJA,A00
2049-188,SILLA PLEGABLE COLOR NEGRO,1,M,ACTIVOS EN PROCESO DE BAJA,A00
2049-190,SILLA PLEGABLE COLOR NEGRO,1,M,ACTIVOS EN PROCESO DE BAJA,A00
2049-191,SILLA PLEGABLE COLOR NEGRO,1,M,ACTIVOS EN PROCESO DE BAJA,A00
2049-193,SILLA PLEGABLE COLOR NEGRO,1,M,ACTIVOS EN PROCESO DE BAJA,A00
2049-198,SILLA PLEGABLE COLOR NEGRO,1,M,ACTIVOS EN PROCESO DE BAJA,A00
2049-200,SILLA PLEGABLE COLOR NEGRO,1,M,ACTIVOS EN PROCESO DE BAJA,A00
2049-201,SILLA PLEGABLE COLOR NEGRO,1,M,ACTIVOS EN PROCESO DE BAJA,A00
2049-202NA,SILLA SECRETARIAL CON BRAZOS T/NEGRA,1,M,ACTIVOS EN PROCESO DE BAJA,A00
2049-203,SILLA PLEGABLE COLOR NEGRO,1,M,ACTIVOS EN PROCESO DE BAJA,A00
2049-205,SILLA PLEGABLE COLOR NEGRO,1,M,ACTIVOS EN PROCESO DE BAJA,A00
2049-207,SILLA PLEGABLE COLOR NEGRO,1,M,ACTIVOS EN PROCESO DE BAJA,A00
2049-212,SILLA PLEGABLE COLOR NEGRO,1,M,ACTIVOS EN PROCESO DE BAJA,A00
2049-214,SILLA PLEGABLE COLOR NEGRO,1,M,ACTIVOS EN PROCESO DE BAJA,A00
2049-216,SILLA PLEGABLE COLOR NEGRO,1,M,ACTIVOS EN PROCESO DE BAJA,A00
2049-217,SILLA PLEGABLE COLOR NEGRO,1,M,ACTIVOS EN PROCESO DE BAJA,A00
2049-220,SILLA PLEGABLE COLOR NEGRO,1,M,ACTIVOS EN PROCESO DE BAJA,A00
2049-222,SILLA PLEGABLE COLOR NEGRO,1,M,ACTIVOS EN PROCESO DE BAJA,A00
2049-227,SILLA PLEGABLE COLOR NEGRO,1,M,ACTIVOS EN PROCESO DE BAJA,A00
2049-228,SILLA PLEGABLE COLOR NEGRO,1,M,ACTIVOS EN PROCESO DE BAJA,A00
2049-230,SILLA PLEGABLE COLOR NEGRO,1,M,ACTIVOS EN PROCESO DE BAJA,A00
2049-234,SILLA PLEGABLE COLOR NEGRO,1,M,ACTIVOS EN PROCESO DE BAJA,A00
2049-235,SILLA PLEGABLE COLOR NEGRO,1,M,ACTIVOS EN PROCESO DE BAJA,A00
2049-237,SILLA PLEGABLE COLOR NEGRO,1,M,ACTIVOS EN PROCESO DE BAJA,A00
2049-240,SILLA PLEGABLE COLOR NEGRO,1,M,ACTIVOS EN PROCESO DE BAJA,A00
2049-251,SILLA VISITANTE TELA COLOR NEGRO,1,M,ACTIVOS EN PROCESO DE BAJA,A00
2049-255,SILLA VISITANTE TELA COLOR NEGRO,1,M,ACTIVOS EN PROCESO DE BAJA,A00
2049-256,SILLA VISITANTE TELA COLOR NEGRO,1,M,ACTIVOS EN PROCESO DE BAJA,A00
2049-300,SILLA SECRETARIAL C/RESPALDO,1,M,ACTIVOS EN PROCESO DE BAJA,A00
2049-321,SILLA SECRETARIAL JUNIOR RESPALDO MOVIL,1,M,ACTIVOS EN PROCESO DE BAJA,A00
2049-324,SILLA SECRETARIAL RESPALDO ALTO,1,M,ACTIVOS EN PROCESO DE BAJA,A00
2049-331,SILLA SECRETARIAL RESPALDO ALTO 5 PUNTAS,1,M,ACTIVOS EN PROCESO DE BAJA,A00
2051-120NA,SILLN EJECUTIVO RESPALDO BAJO,1,M,ACTIVOS EN PROCESO DE BAJA,A00
2051-131,SILLON VISITANTE CON BRAZOS (2051-131),1,M,ACTIVOS EN PROCESO DE BAJA,A00
2053-010,TARJETERO PARA 25 TARJETAS,1,M,ACTIVOS EN PROCESO DE BAJA,A00
2053-011,TARJETERO PARA 25 TARJETAS,1,M,ACTIVOS EN PROCESO DE BAJA,A00
2053-012,TARJETERO PARA 24 TARJETAS,1,M,ACTIVOS EN PROCESO DE BAJA,A00
2053-015,TARJETERO PARA ALMACEN,1,M,ACTIVOS EN PROCESO DE BAJA,A00
2053-017,TARJETERO PARA 25 TARJETAS,1,M,ACTIVOS EN PROCESO DE BAJA,A00
2053-021,TARJETERO METALICO 25 ESPACIOS,1,M,ACTIVOS EN PROCESO DE BAJA,A00
2053-025,TARJETERO METALICO 25 ESPACIOS,1,M,ACTIVOS EN PROCESO DE BAJA,A00
2055-002NA,VENTILADOR DE PEDESTAL  ,1,M,ACTIVOS EN PROCESO DE BAJA,A00
2055-029NA,VENTILADOR DE PEDESTAL,1,M,ACTIVOS EN PROCESO DE BAJA,A00
2055-051,VENTILADOR DE PEDESTAL,1,M,ACTIVOS EN PROCESO DE BAJA,A00
2085-001NA,MICROGRABADORA,1,M,ACTIVOS EN PROCESO DE BAJA,A00
3001-011NA,TELEFONO DE ESCRITORIO,1,M,ACTIVOS EN PROCESO DE BAJA,A00
3001-074,TELEFONO REDISCADO DE UN TOQUE,1,M,ACTIVOS EN PROCESO DE BAJA,A00
3001-094,TELEFONO UNILINEA,1,M,ACTIVOS EN PROCESO DE BAJA,A00
3001-097,TELEFONO UNILINEA,1,M,ACTIVOS EN PROCESO DE BAJA,A00
3001-105,TELEFONO,1,M,ACTIVOS EN PROCESO DE BAJA,A00
3015-001NA,SISTEMA DE AUDIO,1,M,ACTIVOS EN PROCESO DE BAJA,A00
3030-014NA,TANQUE VERTICAL COMERCIAL 450 LTS,1,M,ACTIVOS EN PROCESO DE BAJA,A00
3030-035NA,TINACO PARA 450 LITROS,1,M,ACTIVOS EN PROCESO DE BAJA,A00
4058-003,CALEFACTOR,1,M,ACTIVOS EN PROCESO DE BAJA,A00
3001-018CO,TELEFONO UNILINEA,1,M,ACTIVOS EN PROCESO DE BAJA,A00
2095-003NA,CARGADOR DE BATERIAS,1,M,ACTIVOS EN PROCESO DE BAJA,A00
2055-042,VENTILADOR DE PEDESTAL,1,M,ACTIVOS EN PROCESO DE BAJA,A00
0502-008CO,AMPERIMETRO DE GANCHO (0502-008CO),1,M,ACTIVOS EN PROCESO DE BAJA,A00
2049-209NA,SILLA SECRETARIAL TELA C/NEGRO (2049-209NA),1,M,ACTIVOS EN PROCESO DE BAJA,A00
2049-354CO,SILLA SECRETRARIAL CON RODAJAS BASE DE 5 PUNTAS RECLINABLE SIN BRAZOS EN COLOR NEGRO (2049-354CO),1,M,ACTIVOS EN PROCESO DE BAJA,A00
2049-357CO,SILLA SECRETRARIAL CON RODAJAS BASE DE 5 PUNTAS RECLINABLE SIN BRAZOS EN COLOR NEGRO (2049-357CO),1,M,ACTIVOS EN PROCESO DE BAJA,A00
2049-361CO,SILLA SECRETRARIAL CON RODAJAS BASE DE 5 PUNTAS RECLINABLE SIN BRAZOS EN COLOR NEGRO (2049-361CO),1,M,ACTIVOS EN PROCESO DE BAJA,A00
2049-362CO,SILLA SECRETRARIAL CON RODAJAS BASE DE 5 PUNTAS RECLINABLE SIN BRAZOS EN COLOR NEGRO (2049-362CO),1,M,ACTIVOS EN PROCESO DE BAJA,A00
2049-396CO,SILLA SECRETARIAL CON RODAJAS BASE DE 5 PUNTAS RECLINABLE SIN BRAZOS EN COLOR NEGRO (2049-396CO),1,M,ACTIVOS EN PROCESO DE BAJA,A00
2049-398CO,SILLA SECRETARIAL CON RODAJAS BASE DE 5 PUNTAS RECLINABLE SIN BRAZOS EN COLOR NEGRO (2049-398CO),1,M,ACTIVOS EN PROCESO DE BAJA,A00
2049-401CO,SILLA SECRETARIAL CON RODAJAS BASE DE 5 PUNTAS RECLINABLE SIN BRAZOS EN COLOR NEGRO ,1,M,ACTIVOS EN PROCESO DE BAJA,A00
2049-403CO,SILLA SECRETARIAL CON RODAJAS BASE DE 5 PUNTAS RECLINABLE SIN BRAZOS EN COLOR NEGRO (2049-403CO),1,M,ACTIVOS EN PROCESO DE BAJA,A00
2049-406CO,SILLA SECRETARIAL CON RODAJAS BASE DE 5 PUNTAS RECLINABLE SIN BRAZOS EN COLOR NEGRO,1,M,ACTIVOS EN PROCESO DE BAJA,A00
2049-431CO,SILLA VISITANTE FIJA CON DESCANZA BRAZOS COLOR NEGRO(2049-431CO),1,M,ACTIVOS EN PROCESO DE BAJA,A00
2049-432CO,SILLA VISITANTE FIJA CON DESCANZA BRAZOS COLOR NEGRO(2049-432CO),1,M,ACTIVOS EN PROCESO DE BAJA,A00
0542-004CO,EXTRACTOR DE AIRE DE 8,1,M,ACTIVOS EN PROCESO DE BAJA,A00
2095-008CO,CARGADOR DE BATERIAS (2095-008CO),1,M,ACTIVOS EN PROCESO DE BAJA,A00
2061-001CO,CAFETERA PARA 40 TAZAS,1,M,ACTIVOS EN PROCESO DE BAJA,A00
3002-270CO,RADIO PORTATIL,1,M,ACTIVOS EN PROCESO DE BAJA,A00
2011-036CO,CALCULADORA ELECTRICA CON PANTALLA ,1,M,ACTIVOS EN PROCESO DE BAJA,A00
2011-039CO,CALCULADORA ELECTRICA CON PANTALLA,1,M,ACTIVOS EN PROCESO DE BAJA,A00
2055-075CO,VENTILADOR DE PEDESTAL,1,M,ACTIVOS EN PROCESO DE BAJA,A00
2055-076CO,VENTILADOR DE PEDESTAL,1,M,ACTIVOS EN PROCESO DE BAJA,A00
2015-004,CESTO PAPELERO  ( 2015-004 ),1,M,ACTIVOS EN PROCESO DE BAJA,A00
2015-023,CESTO PAPELERO (2015-023),1,M,ACTIVOS EN PROCESO DE BAJA,A00
2025-025,ESCRITORIO SECRETARIAL (2025-025),1,M,ACTIVOS EN PROCESO DE BAJA,A00
2033-030,LIBRERO DE MADERA,1,M,ACTIVOS EN PROCESO DE BAJA,A00
2053-001,TARJETERO    ( 2053-001 ),1,M,ACTIVOS EN PROCESO DE BAJA,A00
3016-004,TRITURADORA DE PAPEL,1,M,ACTIVOS EN PROCESO DE BAJA,A00
2083-001,CAMARA DIGITAL 7.2 MP,1,M,RESOLUCION PARA SU PAGO,A00
2049-397CO,SILLA SECRETARIAL CON RODAJAS BASE DE 5 PUNTAS RECLINABLE SIN BRAZOS EN COLOR NEGRO (2049-397CO),1,M,RESOLUCION PARA SU PAGO,A00
2003-013,MESA MULTIPLE PARA COMPUTADORA (2003-013),1,M,BIENES DONADOS,A00
2003-015,MESA MULTIPLE PARA COMPUTADORA (2003-015),1,M,BIENES DONADOS,A00
2003-016,MESA MULTIPLE PARA COMPUTADORA (2003-016),1,M,BIENES DONADOS,A00
2003-020,MESA MULTIPLE PARA COMPUTADORA (2003-020),1,M,BIENES DONADOS,A00
2037-129CO,MESA PLEGABLE DE PLASTICO,1,M,ACTIVOS ROBADOS,A00
2037-130CO,MESA PLEGABLE DE PLASTICO,1,M,ACTIVOS ROBADOS,A00
2049-496CO,SILLA PLEGABLE DE PLASTICO,1,M,ACTIVOS ROBADOS,A00
2049-504CO,SILLA PLEGABLE DE PLASTICO,1,M,ACTIVOS ROBADOS,A00
2049-505CO,SILLA PLEGABLE DE PLASTICO,1,M,ACTIVOS ROBADOS,A00
2049-521CO,SILLA PLEGABLE DE PLASTICOS,1,M,ACTIVOS ROBADOS,A00
2049-511CO,SILLA PLEGABLE DE PLASTICO,1,M,ACTIVOS ROBADOS,A00
2049-517CO,SILLA PLEGABLE DE PLASTICO,1,M,ACTIVOS ROBADOS,A00
2049-516CO,SILLA PLEGABLE DE PLASTICO,1,M,ACTIVOS ROBADOS,A00
2049-525CO,SILLA PLEGABLE DE PLASTICO,1,M,ACTIVOS ROBADOS,A00
2049-526CO,SILLA PLEGABLE DE PLASTICO,1,M,ACTIVOS ROBADOS,A00
2049-528CO,SILLA PLEGABLE DE PLASTICO,1,M,ACTIVOS ROBADOS,A00
2049-534CO,SILLA PLEGABLE DE PLASTICO,1,M,ACTIVOS ROBADOS,A00
2078-065,MOTOBOMBA 1/4,1,M,ACTIVOS ROBADOS,A00
2092-001NA,BOMBA DE 1/2,1,M,ACTIVOS ROBADOS,A00
3001-016CO,TELEFONO UNILINEA,1,M,ACTIVOS ROBADOS,A00
2022-005NA,DESPACHADOR DE AGUA CALIENTE Y FRIA (2022-005NA),1,M,ACTIVOS ROBADOS,A00
2015-035,CESTO PAPELERO (2015-035),1,M,ACTIVOS EN PAGO A CEAS,A00
2015-036,CESTO PAPELERO (2015-036),1,M,ACTIVOS EN PAGO A CEAS,A00
2015-037,CESTO PAPELERO (2015-037),1,M,ACTIVOS EN PAGO A CEAS,A00
2099-001,PAPELERA 2 NIVELES,1,M,ACTIVOS EN PAGO A CEAS,A00
2099-002,PAPELERA 2 NIVELES,1,M,ACTIVOS EN PAGO A CEAS,A00
2099-003,PAPELERA 2 NIVELES,1,M,ACTIVOS EN PAGO A CEAS,A00
3002-010,RADIO COMUNICADOR,1,M,ACTIVOS EN PAGO A CEAS,A00
3013-015,CARGADOR,1,M,ACTIVOS EN PAGO A CEAS,A00
3100-002,FUENTE DE PODER,1,M,ACTIVOS EN PAGO A CEAS,A00
2035-026,MAQUINA DE ESCRIBIR MECANICA (2035-026),1,M,ACTIVOS EN PAGO A CEAS,A00
2003-029,MUEBLE PARA COMPUTADORA,1,B,REASIGNACIÓN,A00
2028-048,EXTINGUIDOR PARA VEHICULO 2 KG,1,B,REASIGNACIÓN,A00
2028-049,EXTINGUIDOR PARA VEHICULO 2 KG,1,B,REASIGNACIÓN,A00
2028-052,EXTINGUIDOR PARA VEHICULO 2 KG,1,B,REASIGNACIÓN,A00
2033-007NA,LIBRERO,1,B,REASIGNACIÓN,A00
2049-320,SILLA FIJA SIN BRAZO,1,B,REASIGNACIÓN,A00
2095-004NA,CARGADOR DE BATERIAS,1,B,REASIGNACIÓN,A00
2076-016,CINTA METRICA 30 METROS METALICA,1,B,REASIGNACIÓN,A00
